psycopg2-binary
braintree==3.38.0
certifi==2017.11.5
cffi==1.11.2
chardet==3.0.4
Django==1.10
django-admin-sortable2==0.6.15
django-ckeditor==5.3.0
django-colorfield==0.1.15
django-geoposition==0.3.0
django-jet==1.0.4
django-js-asset==0.1.1
django-modeltranslation==0.12.2
django-widget-tweaks==1.4.1
enum34==1.1.6
idna==2.6
ipaddress==1.0.18
olefile==0.44
Pillow==4.0.0
psycopg2==2.7.5
pycparser==2.18
python-slugify==1.2.4
pytz==2017.3
requests==2.18.4
six==1.11.0
Unidecode==1.0.22
urllib3==1.22
xlrd==1.1.0
xlwt==1.3.0
transliterate